Data Analysis Challenge - FIFA 2021 Data Cleaning In R
…
Club

The club variable represent the current club in which the player have a contract with as of the year 2021.

select(edit_raw, club)

# A tibble: 18,979 × 1
   club                         
   <chr>                        
 1 "\n\n\n\nFC Barcelona"       
 2 "\n\n\n\nJuventus"           
 3 "\n\n\n\nAtlético Madrid"    
 4 "\n\n\n\nManchester City"    
 5 "\n\n\n\nParis Saint-Germain"
 6 "\n\n\n\nFC Bayern München"  
 7 "\n\n\n\nLiverpool"          
 8 "\n\n\n\nLiverpool"          
 9 "\n\n\n\nParis Saint-Germain"
10 "\n\n\n\nFC Barcelona"       
# … with 18,969 more rows
…
edit_raw |> filter(is.na(club)) |> select(club)

# A tibble: 0 × 1
# … with 1 variable: club <chr>

Great! no missing values, so all club names with special character have been transformed successfully.

Contract

This column contains the information about the year in which the players contract with their current club started and the year the contract will or is supposed to end.

select(edit_raw, contract)

# A tibble: 18,979 × 1
   contract   
   <chr>      
 1 2004 ~ 2021
 2 2018 ~ 2022
 3 2014 ~ 2023
 4 2015 ~ 2023
 5 2017 ~ 2022
 6 2014 ~ 2023
 7 2017 ~ 2023
 8 2018 ~ 2024
 9 2018 ~ 2022
10 2014 ~ 2022
# … with 18,969 more rows

It is important that the two different information above should be in their respective column. This provide a clear and consistent record, there by making it easy to perform both simple and complex analysis using them.

To restructure the contract variable, we need to separate each of the identified variable into a start_year and end_year column. Before we do that, here are some observations we should keep in mind:

Players with no current club are considered free agents and are with no contract start year and end year.

edit_raw |> filter(club == "No Club") |> select(club, contract)

# A tibble: 237 × 2
   club    contract
   <chr>   <chr>   
 1 No Club Free    
 2 No Club Free    
 3 No Club Free    
 4 No Club Free    
 5 No Club Free    
 6 No Club Free    
 7 No Club Free    
 8 No Club Free    
 9 No Club Free    
10 No Club Free    
# … with 227 more rows

Note that when a player is on loan, no contract start year was specified.

edit_raw |> 
  filter(str_detect(contract, "Loan")) |> 
  select(club, contract, loan_date_end)

# A tibble: 1,013 × 3
   club                contract             loan_date_end
   <chr>               <chr>                <chr>        
 1 Tottenham Hotspur   Jun 30, 2021 On Loan Jun 30, 2021 
 2 Fulham              Jun 30, 2021 On Loan Jun 30, 2021 
 3 Paris Saint-Germain Jun 30, 2021 On Loan Jun 30, 2021 
 4 Napoli              Jun 30, 2021 On Loan Jun 30, 2021 
 5 Atletico Madrid     Jun 30, 2021 On Loan Jun 30, 2021 
 6 Bayer 04 Leverkusen Jun 30, 2021 On Loan Jun 30, 2021 
 7 FC Porto            Jun 30, 2021 On Loan Jun 30, 2021 
 8 Arsenal             Jun 30, 2021 On Loan Jun 30, 2021 
 9 RB Leipzig          Jun 30, 2021 On Loan Jun 30, 2021 
10 Sporting CP         Jun 30, 2021 On Loan Jun 30, 2021 
# … with 1,003 more rows
…
filter(edit_raw, is.na(release_clause)) |> select(release_clause)

# A tibble: 0 × 1
# … with 1 variable: release_clause <dbl>

We have no NA values in all the columns.

Height & weight

The height and weight gives the exact physical description of the players, they also have a few problem of their own so let us check them.

select(edit_raw, height, weight)

# A tibble: 18,979 × 2
   height weight
   <chr>  <chr> 
 1 170cm  72kg  
 2 187cm  83kg  
 3 188cm  87kg  
 4 181cm  70kg  
 5 175cm  68kg  
 6 184cm  80kg  
 7 175cm  71kg  
 8 191cm  91kg  
 9 178cm  73kg  
10 187cm  85kg  
# … with 18,969 more rows

edit_raw |> filter(str_detect(height, "'")) |> select(height)

# A tibble: 40 × 1
   height  
   <chr>   
 1 "6'2\"" 
 2 "6'3\"" 
 3 "6'5\"" 
 4 "5'11\""
 5 "6'4\"" 
 6 "6'1\"" 
 7 "6'0\"" 
 8 "6'1\"" 
 9 "5'11\""
10 "6'2\"" 
# … with 30 more rows
…
checks

filter(edit_raw, is.na(weight_kg)) |> select(weight_kg)

# A tibble: 0 × 1
# … with 1 variable: weight_kg <dbl>

Great! the height values were correctly converted to centimeters without any error and the weight to numeric representation of the kilogram metric.

Player name

select(edit_raw, long_name, name)

# A tibble: 18,979 × 2
   long_name                    name             
   <chr>                        <chr>            
 1 Lionel Messi                 L. Messi         
 2 C. Ronaldo dos Santos Aveiro Cristiano Ronaldo
 3 Jan Oblak                    J. Oblak         
 4 Kevin De Bruyne              K. De Bruyne     
 5 Neymar da Silva Santos Jr.   Neymar Jr        
 6 Robert Lewandowski           R. Lewandowski   
 7 Mohamed Salah                M. Salah         
 8 Alisson Ramses Becker        Alisson          
 9 Kylian Mbappé                K. Mbappé        
10 Marc-André ter Stegen        M. ter Stegen    
# … with 18,969 more rows
…
# A tibble: 0 × 1
# … with 1 variable: long_name <chr>

filter(edit_raw, is.na(name)) |> select(name)

# A tibble: 0 × 1
# … with 1 variable: name <chr>

No NA which mean the conversion was successful for all records.

Nationality

select(edit_raw, nationality)

# A tibble: 18,979 × 1
   nationality
   <chr>      
 1 Argentina  
 2 Portugal   
 3 Slovenia   
 4 Belgium    
 5 Brazil     
 6 Poland     
 7 Egypt      
 8 Brazil     
 9 France     
10 Germany    
# … with 18,969 more rows
…
Check

filter(edit_raw, is.na(nationality)) |> select(nationality)

# A tibble: 0 × 1
# … with 1 variable: nationality <chr>

Player functionality rating.

The w/f column representing player’s weak foot rating, SM which represent player’s skill moves rating and finally IR representing the injury rating. these variables are all on a scale of 1-5. Which is to say that they must be a numeric variable with an minimum value of 1 and a maximum value of 5.

select(edit_raw, w_f, sm, ir)

# A tibble: 18,979 × 3
   w_f   sm    ir   
   <chr> <chr> <chr>
 1 4 ★   4★    5 ★  
 2 4 ★   5★    5 ★  
 3 3 ★   1★    3 ★  
 4 5 ★   4★    4 ★  
 5 5 ★   5★    5 ★  
 6 4 ★   4★    4 ★  
 7 3 ★   4★    3 ★  
 8 3 ★   1★    3 ★  
 9 4 ★   5★    3 ★  
10 4 ★   1★    3 ★  
# … with 18,969 more rows
…
filter(edit_raw, is.na(skill_move)) |> select(skill_move)

# A tibble: 0 × 1
# … with 1 variable: skill_move <int>

filter(edit_raw, is.na(injury_rating)) |> select(injury_rating)

# A tibble: 0 × 1
# … with 1 variable: injury_rating <int>

Hit

select(edit_raw, hits)

# A tibble: 18,979 × 1
   hits 
   <chr>
 1 771  
 2 562  
 3 150  
 4 207  
 5 595  
 6 248  
 7 246  
 8 120  
 9 1.6K 
10 130  
# … with 18,969 more rows
…
    562

    150

    207

    595

Player positions

The position variable represent all the position a player have played.

select(edit_raw, positions)

# A tibble: 18,979 × 1
   positions 
   <chr>     
 1 RW, ST, CF
 2 ST, LW    
 3 GK        
 4 CAM, CM   
 5 LW, CAM   
 6 ST        
 7 RW        
 8 GK        
 9 ST, LW, RW
10 GK        
# … with 18,969 more rows
…
pos <- player_position |> distinct(position) |> pull()

all(pos %in% names(position_dict))

[1] TRUE

Join tables

You can combine the new position table with the main table using the left_join() function from the dplyr package, all you have to pass to the function is the position table and the player id.

edit_raw |> 
  left_join(player_position, by = "id") |>
  select(id, long_name, position)

# A tibble: 30,493 × 3
       id long_name                    position
    <dbl> <chr>                        <chr>   
 1 158023 Lionel Messi                 RW      
 2 158023 Lionel Messi                 ST      
 3 158023 Lionel Messi                 CF      
 4  20801 C. Ronaldo dos Santos Aveiro ST      
 5  20801 C. Ronaldo dos Santos Aveiro LW      
 6 200389 Jan Oblak                    GK      
 7 192985 Kevin De Bruyne              CAM     
 8 192985 Kevin De Bruyne              CM      
 9 190871 Neymar da Silva Santos Jr.   LW      
10 190871 Neymar da Silva Santos Jr.   CAM     
# … with 30,483 more rows
…
